com\mycompany\fdp\storage\OrderStorage.class
com\mycompany\fdp\storage\StockStorage.class
com\mycompany\fdp\MainApp.class
com\mycompany\fdp\api\Endpoint.class
com\mycompany\fdp\api\endpoints\UsersEndpoint.class
com\mycompany\fdp\storage\Storage.class
com\mycompany\fdp\api\endpoints\StockEndpoint.class
com\mycompany\fdp\api\ApiServer.class
com\mycompany\fdp\models\ApiResponse.class
com\mycompany\fdp\database\DB.class
com\mycompany\fdp\storage\UserStorage.class
com\mycompany\fdp\api\endpoints\OrderEndPoint.class
com\mycompany\fdp\models\Order.class
com\mycompany\fdp\models\Stock.class
com\mycompany\fdp\models\User.class
com\mycompany\fdp\storage\RowMapper.class
