C:\Users\rui\Documents\fdp\api\src\main\java\com\mycompany\fdp\api\endpoints\OrderEndPoint.java
C:\Users\rui\Documents\fdp\api\src\main\java\com\mycompany\fdp\models\User.java
C:\Users\rui\Documents\fdp\api\src\main\java\com\mycompany\fdp\api\endpoints\StockEndpoint.java
C:\Users\rui\Documents\fdp\api\src\main\java\com\mycompany\fdp\api\endpoints\UsersEndpoint.java
C:\Users\rui\Documents\fdp\api\src\main\java\com\mycompany\fdp\storage\UserStorage.java
C:\Users\rui\Documents\fdp\api\src\main\java\com\mycompany\fdp\models\ApiResponse.java
C:\Users\rui\Documents\fdp\api\src\main\java\com\mycompany\fdp\api\Endpoint.java
C:\Users\rui\Documents\fdp\api\src\main\java\com\mycompany\fdp\models\Stock.java
C:\Users\rui\Documents\fdp\api\src\main\java\com\mycompany\fdp\database\DB.java
C:\Users\rui\Documents\fdp\api\src\main\java\com\mycompany\fdp\storage\RowMapper.java
C:\Users\rui\Documents\fdp\api\src\main\java\com\mycompany\fdp\storage\Storage.java
C:\Users\rui\Documents\fdp\api\src\main\java\com\mycompany\fdp\storage\OrderStorage.java
C:\Users\rui\Documents\fdp\api\src\main\java\com\mycompany\fdp\storage\StockStorage.java
C:\Users\rui\Documents\fdp\api\src\main\java\com\mycompany\fdp\MainApp.java
C:\Users\rui\Documents\fdp\api\src\main\java\com\mycompany\fdp\api\ApiServer.java
C:\Users\rui\Documents\fdp\api\src\main\java\com\mycompany\fdp\models\Order.java
